^D:\CENFODRIVE\ESTRUCTURAS DE DATOS 1\ESCUELAPOLONORTE\ESCUELAPOLONORTE\CURSO.CPP|D:\CENFODRIVE\ESTRUCTURAS DE DATOS 1\ESCUELAPOLONORTE\ESCUELAPOLONORTE\DUENDE.CPP|D:\CENFODRIVE\ESTRUCTURAS DE DATOS 1\ESCUELAPOLONORTE\ESCUELAPOLONORTE\LISTACURSOS.CPP|D:\CENFODRIVE\ESTRUCTURAS DE DATOS 1\ESCUELAPOLONORTE\ESCUELAPOLONORTE\LISTADUENDES.CPP|D:\CENFODRIVE\ESTRUCTURAS DE DATOS 1\ESCUELAPOLONORTE\ESCUELAPOLONORTE\LISTAMATRICULAS.CPP|D:\CENFODRIVE\ESTRUCTURAS DE DATOS 1\ESCUELAPOLONORTE\ESCUELAPOLONORTE\MAIN.CPP|D:\CENFODRIVE\ESTRUCTURAS DE DATOS 1\ESCUELAPOLONORTE\ESCUELAPOLONORTE\MATRICULA.CPP|D:\CENFODRIVE\ESTRUCTURAS DE DATOS 1\ESCUELAPOLONORTE\ESCUELAPOLONORTE\NODOC.CPP|D:\CENFODRIVE\ESTRUCTURAS DE DATOS 1\ESCUELAPOLONORTE\ESCUELAPOLONORTE\NODOD.CPP|D:\CENFODRIVE\ESTRUCTURAS DE DATOS 1\ESCUELAPOLONORTE\ESCUELAPOLONORTE\NODOM.CPP
D:\CENFODRIVE\ESTRUCTURAS DE DATOS 1\ESCUELAPOLONORTE\ESCUELAPOLONORTE\DEBUG\VC142.PDB
D:\CENFODRIVE\ESTRUCTURAS DE DATOS 1\ESCUELAPOLONORTE\ESCUELAPOLONORTE\DEBUG\VC142.IDB
D:\CENFODRIVE\ESTRUCTURAS DE DATOS 1\ESCUELAPOLONORTE\ESCUELAPOLONORTE\DEBUG\NODOM.OBJ
D:\CENFODRIVE\ESTRUCTURAS DE DATOS 1\ESCUELAPOLONORTE\ESCUELAPOLONORTE\DEBUG\NODOD.OBJ
D:\CENFODRIVE\ESTRUCTURAS DE DATOS 1\ESCUELAPOLONORTE\ESCUELAPOLONORTE\DEBUG\NODOC.OBJ
D:\CENFODRIVE\ESTRUCTURAS DE DATOS 1\ESCUELAPOLONORTE\ESCUELAPOLONORTE\DEBUG\MATRICULA.OBJ
D:\CENFODRIVE\ESTRUCTURAS DE DATOS 1\ESCUELAPOLONORTE\ESCUELAPOLONORTE\DEBUG\MAIN.OBJ
D:\CENFODRIVE\ESTRUCTURAS DE DATOS 1\ESCUELAPOLONORTE\ESCUELAPOLONORTE\DEBUG\LISTAMATRICULAS.OBJ
D:\CENFODRIVE\ESTRUCTURAS DE DATOS 1\ESCUELAPOLONORTE\ESCUELAPOLONORTE\DEBUG\LISTADUENDES.OBJ
D:\CENFODRIVE\ESTRUCTURAS DE DATOS 1\ESCUELAPOLONORTE\ESCUELAPOLONORTE\DEBUG\LISTACURSOS.OBJ
D:\CENFODRIVE\ESTRUCTURAS DE DATOS 1\ESCUELAPOLONORTE\ESCUELAPOLONORTE\DEBUG\DUENDE.OBJ
D:\CENFODRIVE\ESTRUCTURAS DE DATOS 1\ESCUELAPOLONORTE\ESCUELAPOLONORTE\DEBUG\CURSO.OBJ
^D:\CENFODRIVE\ESTRUCTURAS DE DATOS 1\ESCUELAPOLONORTE\ESCUELAPOLONORTE\CURSO.CPP
D:\CENFODRIVE\ESTRUCTURAS DE DATOS 1\ESCUELAPOLONORTE\ESCUELAPOLONORTE\DEBUG\VC142.PDB
^D:\CENFODRIVE\ESTRUCTURAS DE DATOS 1\ESCUELAPOLONORTE\ESCUELAPOLONORTE\DUENDE.CPP
D:\CENFODRIVE\ESTRUCTURAS DE DATOS 1\ESCUELAPOLONORTE\ESCUELAPOLONORTE\DEBUG\VC142.PDB
^D:\CENFODRIVE\ESTRUCTURAS DE DATOS 1\ESCUELAPOLONORTE\ESCUELAPOLONORTE\LISTACURSOS.CPP
D:\CENFODRIVE\ESTRUCTURAS DE DATOS 1\ESCUELAPOLONORTE\ESCUELAPOLONORTE\DEBUG\VC142.PDB
^D:\CENFODRIVE\ESTRUCTURAS DE DATOS 1\ESCUELAPOLONORTE\ESCUELAPOLONORTE\LISTAMATRICULAS.CPP
D:\CENFODRIVE\ESTRUCTURAS DE DATOS 1\ESCUELAPOLONORTE\ESCUELAPOLONORTE\DEBUG\VC142.PDB
^D:\CENFODRIVE\ESTRUCTURAS DE DATOS 1\ESCUELAPOLONORTE\ESCUELAPOLONORTE\NODOC.CPP
D:\CENFODRIVE\ESTRUCTURAS DE DATOS 1\ESCUELAPOLONORTE\ESCUELAPOLONORTE\DEBUG\VC142.PDB
^D:\CENFODRIVE\ESTRUCTURAS DE DATOS 1\ESCUELAPOLONORTE\ESCUELAPOLONORTE\NODOD.CPP
D:\CENFODRIVE\ESTRUCTURAS DE DATOS 1\ESCUELAPOLONORTE\ESCUELAPOLONORTE\DEBUG\VC142.PDB
^D:\CENFODRIVE\ESTRUCTURAS DE DATOS 1\ESCUELAPOLONORTE\ESCUELAPOLONORTE\NODOM.CPP
D:\CENFODRIVE\ESTRUCTURAS DE DATOS 1\ESCUELAPOLONORTE\ESCUELAPOLONORTE\DEBUG\VC142.PDB
^D:\CENFODRIVE\ESTRUCTURAS DE DATOS 1\ESCUELAPOLONORTE\ESCUELAPOLONORTE\LISTADUENDES.CPP|D:\CENFODRIVE\ESTRUCTURAS DE DATOS 1\ESCUELAPOLONORTE\ESCUELAPOLONORTE\MAIN.CPP|D:\CENFODRIVE\ESTRUCTURAS DE DATOS 1\ESCUELAPOLONORTE\ESCUELAPOLONORTE\MATRICULA.CPP
D:\CENFODRIVE\ESTRUCTURAS DE DATOS 1\ESCUELAPOLONORTE\ESCUELAPOLONORTE\DEBUG\VC142.PDB
D:\CENFODRIVE\ESTRUCTURAS DE DATOS 1\ESCUELAPOLONORTE\ESCUELAPOLONORTE\DEBUG\VC142.IDB
D:\CENFODRIVE\ESTRUCTURAS DE DATOS 1\ESCUELAPOLONORTE\ESCUELAPOLONORTE\DEBUG\LISTADUENDES.OBJ
D:\CENFODRIVE\ESTRUCTURAS DE DATOS 1\ESCUELAPOLONORTE\ESCUELAPOLONORTE\DEBUG\MATRICULA.OBJ
D:\CENFODRIVE\ESTRUCTURAS DE DATOS 1\ESCUELAPOLONORTE\ESCUELAPOLONORTE\DEBUG\MAIN.OBJ
^D:\CENFODRIVE\ESTRUCTURAS DE DATOS 1\ESCUELAPOLONORTE\ESCUELAPOLONORTE\MATRICULA.CPP
D:\CENFODRIVE\ESTRUCTURAS DE DATOS 1\ESCUELAPOLONORTE\ESCUELAPOLONORTE\DEBUG\VC142.PDB
^D:\CENFODRIVE\ESTRUCTURAS DE DATOS 1\ESCUELAPOLONORTE\ESCUELAPOLONORTE\LISTADUENDES.CPP
D:\CENFODRIVE\ESTRUCTURAS DE DATOS 1\ESCUELAPOLONORTE\ESCUELAPOLONORTE\DEBUG\VC142.PDB
^D:\CENFODRIVE\ESTRUCTURAS DE DATOS 1\ESCUELAPOLONORTE\ESCUELAPOLONORTE\MAIN.CPP
D:\CENFODRIVE\ESTRUCTURAS DE DATOS 1\ESCUELAPOLONORTE\ESCUELAPOLONORTE\DEBUG\VC142.PDB
D:\CENFODRIVE\ESTRUCTURAS DE DATOS 1\ESCUELAPOLONORTE\ESCUELAPOLONORTE\DEBUG\VC142.IDB
D:\CENFODRIVE\ESTRUCTURAS DE DATOS 1\ESCUELAPOLONORTE\ESCUELAPOLONORTE\DEBUG\MAIN.OBJ
