^D:\CENFODRIVE\ESTRUCTURAS DE DATOS 1\ESCUELAPOLONORTE\ESCUELAPOLONORTE\DEBUG\CURSO.OBJ|D:\CENFODRIVE\ESTRUCTURAS DE DATOS 1\ESCUELAPOLONORTE\ESCUELAPOLONORTE\DEBUG\DUENDE.OBJ|D:\CENFODRIVE\ESTRUCTURAS DE DATOS 1\ESCUELAPOLONORTE\ESCUELAPOLONORTE\DEBUG\LISTACURSOS.OBJ|D:\CENFODRIVE\ESTRUCTURAS DE DATOS 1\ESCUELAPOLONORTE\ESCUELAPOLONORTE\DEBUG\LISTADUENDES.OBJ|D:\CENFODRIVE\ESTRUCTURAS DE DATOS 1\ESCUELAPOLONORTE\ESCUELAPOLONORTE\DEBUG\LISTAMATRICULAS.OBJ|D:\CENFODRIVE\ESTRUCTURAS DE DATOS 1\ESCUELAPOLONORTE\ESCUELAPOLONORTE\DEBUG\MAIN.OBJ|D:\CENFODRIVE\ESTRUCTURAS DE DATOS 1\ESCUELAPOLONORTE\ESCUELAPOLONORTE\DEBUG\MATRICULA.OBJ|D:\CENFODRIVE\ESTRUCTURAS DE DATOS 1\ESCUELAPOLONORTE\ESCUELAPOLONORTE\DEBUG\NODOC.OBJ|D:\CENFODRIVE\ESTRUCTURAS DE DATOS 1\ESCUELAPOLONORTE\ESCUELAPOLONORTE\DEBUG\NODOD.OBJ|D:\CENFODRIVE\ESTRUCTURAS DE DATOS 1\ESCUELAPOLONORTE\ESCUELAPOLONORTE\DEBUG\NODOM.OBJ
/OUT:"D:\CENFODRIVE\ESTRUCTURAS DE DATOS 1\ESCUELAPOLONORTE\DEBUG\ESCUELAPOLONORTE.EXE" /INCREMENTAL /ILK:"DEBUG\ESCUELAPOLONORTE.ILK" /NOLOGO KERNEL32.LIB USER32.LIB GDI32.LIB WINSPOOL.LIB COMDLG32.LIB ADVAPI32.LIB SHELL32.LIB OLE32.LIB OLEAUT32.LIB UUID.LIB ODBC32.LIB ODBCCP32.LIB /MANIFEST /MANIFESTUAC:"level='asInvoker' uiAccess='false'" /manifest:embed /DEBUG /PDB:"D:\CENFODRIVE\ESTRUCTURAS DE DATOS 1\ESCUELAPOLONORTE\DEBUG\ESCUELAPOLONORTE.PDB" /SUBSYSTEM:CONSOLE /TLBID:1 /DYNAMICBASE /NXCOMPAT /IMPLIB:"D:\CENFODRIVE\ESTRUCTURAS DE DATOS 1\ESCUELAPOLONORTE\DEBUG\ESCUELAPOLONORTE.LIB" /MACHINE:X86 DEBUG\CURSO.OBJ
DEBUG\DUENDE.OBJ
DEBUG\LISTACURSOS.OBJ
DEBUG\LISTADUENDES.OBJ
DEBUG\LISTAMATRICULAS.OBJ
DEBUG\MAIN.OBJ
DEBUG\MATRICULA.OBJ
DEBUG\NODOC.OBJ
DEBUG\NODOD.OBJ
DEBUG\NODOM.OBJ
